[api-updater (non-obsolete-error-filter)] 9/28/2021 11:55:44 AM : Starting C:/Program Files/Unity/Hub/Editor/2020.3.0f1/Editor/Data/Tools/ScriptUpdater/APIUpdater.NonObsoleteApiUpdaterDetector.exe
[api-updater (non-obsolete-error-filter)] 
----------------------------------
jit/startup time      : 549.458ms
moved types parse time: 69ms
candidates parse time : 1ms
C# parse time         : 334ms
candidates check time : 36ms
console write time    : 0ms

